test_trigindetvalidation_all_ttbar_pu40 mc15_13TeV.410000.PowhegPythiaEvtGen_P2012_ttbar_hdamp172p5_nonallhad.recon.RDO.e3698_s2608_s2183_r7193
test_trigindetvalidation_all_ttbar_pu60 
test_trigindetvalidation_all_ttbar_pu80 mc15_13TeV.410000.PowhegPythiaEvtGen_P2012_ttbar_hdamp172p5_nonallhad.recon.RDO.e3698_s2608_s2183_r7195
test_trigindetvalidation_beamspot_ttbar_pu40 mc15_13TeV.410000.PowhegPythiaEvtGen_P2012_ttbar_hdamp172p5_nonallhad.recon.RDO.e3698_s2608_s2183_r7193
test_trigindetvalidation_beamspot_ttbar_pu40_zfinder mc15_13TeV.410000.PowhegPythiaEvtGen_P2012_ttbar_hdamp172p5_nonallhad.recon.RDO.e3698_s2608_s2183_r7193
test_trigindetvalidation_beamspot_ttbar_pu80_zfinder mc15_13TeV.410000.PowhegPythiaEvtGen_P2012_ttbar_hdamp172p5_nonallhad.recon.RDO.e3698_s2608_s2183_r7195
test_trigindetvalidation_bjet_ibl_pu40_2016config mc15_13TeV.410000.PowhegPythiaEvtGen_P2012_ttbar_hdamp172p5_nonallhad.recon.RDO.e3698_s2608_s2183_r7193
test_trigindetvalidation_bjet_ibl_pu40_offline_2016config mc15_13TeV.410000.PowhegPythiaEvtGen_P2012_ttbar_hdamp172p5_nonallhad.recon.RDO.e3698_s2608_s2183_r7193
test_trigindetvalidation_bjet_ibl_pu40_offline mc15_13TeV.410000.PowhegPythiaEvtGen_P2012_ttbar_hdamp172p5_nonallhad.recon.RDO.e3698_s2608_s2183_r7193
test_trigindetvalidation_bjet_ibl_pu40 mc15_13TeV.410000.PowhegPythiaEvtGen_P2012_ttbar_hdamp172p5_nonallhad.recon.RDO.e3698_s2608_s2183_r7193
test_trigindetvalidation_bjet_ibl_pu80 mc15_13TeV.410000.PowhegPythiaEvtGen_P2012_ttbar_hdamp172p5_nonallhad.recon.RDO.e3698_s2608_s2183_r7195
test_trigindetvalidation_el_jpsiee_pu40 mc15_13TeV.129190.Pythia8_AU2CTEQ6L1_ppToJpsie3e3.recon.RDO.e3802_s2608_s2183_r7042
test_trigindetvalidation_el_single_e_7-80_ibl_pu40 mc15_13TeV.159010.ParticleGenerator_e_Et7to80.recon.RDO.e1948_s2726_r7772
test_trigindetvalidation_el_single_e_7-80_ibl mc15_13TeV.159010.ParticleGenerator_e_Et7to80.recon.RDO.e1948_s2726_r7728
test_trigindetvalidation_el_single_e_7-80_larged0_pu mc15_13TeV.159053.ParticleGenerator_e_Et7to80_vertxy20.recon.RDO.e3603_s2726_r7772
test_trigindetvalidation_el_single_e_7-80_larged0 mc15_13TeV.159053.ParticleGenerator_e_Et7to80_vertxy20.recon.RDO.e3603_s2726_r7728
test_trigindetvalidation_el_ttbar_pu40 mc15_13TeV.410000.PowhegPythiaEvtGen_P2012_ttbar_hdamp172p5_nonallhad.recon.RDO.e3698_s2608_s2183_r7193
test_trigindetvalidation_el_ttbar_pu80 mc15_13TeV.410000.PowhegPythiaEvtGen_P2012_ttbar_hdamp172p5_nonallhad.recon.RDO.e3698_s2608_s2183_r7195
test_trigindetvalidation_el_zee_ibl_pu40_offline_rzmatcher mc15_13TeV.361106.PowhegPythia8EvtGen_AZNLOCTEQ6L1_Zee.recon.RDO.e3601_s2665_s2183_r7191
test_trigindetvalidation_el_zee_ibl_pu40_offline mc15_13TeV.361106.PowhegPythia8EvtGen_AZNLOCTEQ6L1_Zee.recon.RDO.e3601_s2665_s2183_r7191
test_trigindetvalidation_el_zee_ibl_pu40_rzmatcher mc15_13TeV.361106.PowhegPythia8EvtGen_AZNLOCTEQ6L1_Zee.recon.RDO.e3601_s2665_s2183_r7191
test_trigindetvalidation_el_zee_ibl_pu40 mc15_13TeV.361106.PowhegPythia8EvtGen_AZNLOCTEQ6L1_Zee.recon.RDO.e3601_s2665_s2183_r7191
test_trigindetvalidation_ftk_beamspot_ttbar valid1.410000.PowhegPythiaEvtGen_P2012_ttbar_hdamp172p5_nonallhad.digit.RDO_FTK.e4993_s2887_r8937_r9119
test_trigindetvalidation_ftk_bjet_ttbar_offline valid1.410000.PowhegPythiaEvtGen_P2012_ttbar_hdamp172p5_nonallhad.digit.RDO_FTK.e4993_s2887_r8937_r9119
test_trigindetvalidation_ftk_bjet_ttbar valid1.410000.PowhegPythiaEvtGen_P2012_ttbar_hdamp172p5_nonallhad.digit.RDO_FTK.e4993_s2887_r8937_r9119
test_trigindetvalidation_ftk_mu_ttbar_offline valid1.410000.PowhegPythiaEvtGen_P2012_ttbar_hdamp172p5_nonallhad.digit.RDO_FTK.e4993_s2887_r8937_r9119
test_trigindetvalidation_ftk_mu_ttbar valid1.410000.PowhegPythiaEvtGen_P2012_ttbar_hdamp172p5_nonallhad.digit.RDO_FTK.e4993_s2887_r8937_r9119
test_trigindetvalidation_ftk_tau_tautau mc16_13TeV.361108.PowhegPythia8EvtGen_AZNLOCTEQ6L1_Ztautau.digit.RDO_FTK.e3601_s3126_d1455_d1457
test_trigindetvalidation_minbias_offline mc15_13TeV.361036.Pythia8_A2MSTW2008LO_minbias_inelastic.recon.RDO.e3580_s2726_r7011
test_trigindetvalidation_minbias mc15_13TeV.361036.Pythia8_A2MSTW2008LO_minbias_inelastic.recon.RDO.e3580_s2726_r7011
test_trigindetvalidation_mu_bphys_ibl mc15_13TeV.300401.Pythia8BPhotospp_A14_CTEQ6L1_Bs_Jpsimu3p5mu3p5_phi.recon.RDO.e4397_s2608_r6869
test_trigindetvalidation_mu_single_mu_larged0_pu mc15_13TeV.107237.ParticleGenerator_mu_Pt4to100_vertxy20.recon.RDO.e3603_s2726_r7772
test_trigindetvalidation_mu_single_mu_larged0 mc15_13TeV.107237.ParticleGenerator_mu_Pt4to100_vertxy20.recon.RDO.e3603_s2726_r7728
test_trigindetvalidation_mu_zmumu_ibl_pu40_offline_rzmatcher mc15_13TeV.361107.PowhegPythia8EvtGen_AZNLOCTEQ6L1_Zmumu.recon.RDO.e3601_s2576_s2132_r7143
test_trigindetvalidation_mu_zmumu_ibl_pu40_offline mc15_13TeV.361107.PowhegPythia8EvtGen_AZNLOCTEQ6L1_Zmumu.recon.RDO.e3601_s2576_s2132_r7143
test_trigindetvalidation_mu_zmumu_ibl_pu40_rzmatcher mc15_13TeV.361107.PowhegPythia8EvtGen_AZNLOCTEQ6L1_Zmumu.recon.RDO.e3601_s2576_s2132_r7143
test_trigindetvalidation_mu_zmumu_ibl_pu40 mc15_13TeV.361107.PowhegPythia8EvtGen_AZNLOCTEQ6L1_Zmumu.recon.RDO.e3601_s2576_s2132_r7143
test_trigindetvalidation_tau_ibl_pu46_offline mc16_13TeV.361108.PowhegPythia8EvtGen_AZNLOCTEQ6L1_Ztautau.recon.RDO.e3601_s3126_r9546
test_trigindetvalidation_tau_ibl_pu46 mc16_13TeV.361108.PowhegPythia8EvtGen_AZNLOCTEQ6L1_Ztautau.recon.RDO.e3601_s3126_r9546
test_trigindetvalidation_tau_ibl_pu46_nodoublet mc16_13TeV.361108.PowhegPythia8EvtGen_AZNLOCTEQ6L1_Ztautau.recon.RDO.e3601_s3126_r9546
test_trigindetvalidation_tau_ibl_pu46_roiparam mc16_13TeV.361108.PowhegPythia8EvtGen_AZNLOCTEQ6L1_Ztautau.recon.RDO.e3601_s3126_r9546
